…
#### **Save Test Set Prediction Results**

``` r
input_testing_set$risk_rating <- df_credit[-indeks_training_set,]$risk_rating
input_testing_set$prediction_result <- predict(risk_rating_model, input_testing_set)
print(input_testing_set)
```

    ## # A tibble: 100 x 4
    ##    durasi_pinjaman_bulan jumlah_tanggungan risk_rating prediction_result
    ##                    <dbl>             <dbl> <fct>       <fct>            
    ##  1                    12                 0 1           1                
    ##  2                    36                 0 2           1                
    ##  3                    48                 3 2           3                
    ##  4                    36                 3 2           3                
    ##  5                    48                 6 2           5                
    ##  6                    48                 5 2           5                
    ##  7                    12                 0 1           1                
    ##  8                    12                 0 1           1                
    ##  9                    12                 0 1           1                
    ## 10                    12                 4 3           3                
    ## # ... with 90 more rows
…
